…
```{r, echo = TRUE}
pride_prejudice <- tidy_books %>%
  filter(book == "Pride & Prejudice")

pride_prejudice

(Output)
# A tibble: 122,204 x 4
   book              linenumber chapter word     
   <fct>                  <int>   <int> <chr>    
 1 Pride & Prejudice          1       0 pride    
 2 Pride & Prejudice          1       0 and      
 3 Pride & Prejudice          1       0 prejudice
 4 Pride & Prejudice          3       0 by       
 5 Pride & Prejudice          3       0 jane     
 6 Pride & Prejudice          3       0 austen   
 7 Pride & Prejudice          7       1 chapter  
 8 Pride & Prejudice          7       1 1        
 9 Pride & Prejudice         10       1 it       
10 Pride & Prejudice         10       1 is       
# ... with 122,194 more rows
…
  # A tibble: 2 x 2
  sentiment     n
  <chr>     <int>
1 negative   4781
2 positive   2005
```

The bing lexicon has higher values of negative than the NRC. So it will affect the plot visualization and make the plot of Bing has the highest value of negative. 

How with AFINN? It is stated before that AFINN lexicon assigns words with a score that runs between -5 and 5, with negative scores indicating negative sentiment and positive scores indicating positive sentiment. Here the result of AFINN lexicon:

```{r, echo = TRUE}
afinn
# A tibble: 163 x 3
   index sentiment method
   <dbl>     <dbl> <chr> 
 1     0        29 AFINN 
 2     1         0 AFINN 
 3     2        20 AFINN 
 4     3        30 AFINN 
 5     4        62 AFINN 
 6     5        66 AFINN 
 7     6        60 AFINN 
 8     7        18 AFINN 
 9     8        84 AFINN 
10     9        26 AFINN 
# ... with 153 more rows
```
…
